[INFO ] 2019-12-16 11:56:15.050 View:62 - 
JSON: 
[INFO ] 2019-12-16 11:56:15.054 View:72 - Please, select menu point 
[INFO ] 2019-12-16 11:56:16.416 JacksonExample:37 - Plane{planeN=1, model='F35A', origin='USA', price=221000000, type='Interceptor', cruew=2, combatkit=8, maxspeed=3000, stealthtechnology=true, length=15.5, width=10.5, height=4.5} 
[INFO ] 2019-12-16 11:56:16.416 JacksonExample:37 - Plane{planeN=4, model='EurofighterTyphoon', origin='UK', price=190000000, type='Multirole', cruew=1, combatkit=8, maxspeed=2300, stealthtechnology=false, length=15.9, width=10.7, height=5.38} 
[INFO ] 2019-12-16 11:56:16.417 JacksonExample:37 - Plane{planeN=2, model='Mirage2000', origin='France', price=115000000, type='Interceptor', cruew=1, combatkit=6, maxspeed=2400, stealthtechnology=false, length=14.3, width=9.2, height=5.15} 
[INFO ] 2019-12-16 11:56:16.417 JacksonExample:37 - Plane{planeN=3, model='Su25SM', origin='Russia', price=22556000, type='Assault', cruew=1, combatkit=9, maxspeed=900, stealthtechnology=false, length=15.8, width=14.2, height=4.8} 
[INFO ] 2019-12-16 11:56:16.417 View:62 - 
JSON: 
[INFO ] 2019-12-16 11:56:16.417 View:72 - Please, select menu point 
[INFO ] 2019-12-16 11:56:18.363 GsonExample:41 - Plane{planeN=1, model='F35A', origin='USA', price=221000000, type='Interceptor', cruew=2, combatkit=8, maxspeed=3000, stealthtechnology=true, length=15.5, width=10.5, height=4.5} 
[INFO ] 2019-12-16 11:56:18.364 GsonExample:41 - Plane{planeN=3, model='Su25SM', origin='Russia', price=22556000, type='Assault', cruew=1, combatkit=9, maxspeed=900, stealthtechnology=false, length=15.8, width=14.2, height=4.8} 
[INFO ] 2019-12-16 11:56:18.364 GsonExample:41 - Plane{planeN=4, model='EurofighterTyphoon', origin='UK', price=190000000, type='Multirole', cruew=1, combatkit=8, maxspeed=2300, stealthtechnology=false, length=15.9, width=10.7, height=5.38} 
[INFO ] 2019-12-16 11:56:18.364 GsonExample:41 - Plane{planeN=2, model='Mirage2000', origin='France', price=115000000, type='Interceptor', cruew=1, combatkit=6, maxspeed=2400, stealthtechnology=false, length=14.3, width=9.2, height=5.15} 
[INFO ] 2019-12-16 11:56:18.364 View:62 - 
JSON: 
[INFO ] 2019-12-16 11:56:18.365 View:72 - Please, select menu point 
[INFO ] 2019-12-16 12:05:04.501 View:62 - 
JSON: 
[INFO ] 2019-12-16 12:05:04.505 View:72 - Please, select menu point 
[INFO ] 2019-12-16 12:05:06.228 JacksonExample:37 - Plane{planeN=1, model='F35A', origin='USA', price=221000000, type='Interceptor', cruew=2, combatkit=8, maxspeed=3000, stealthtechnology=true, length=15.5, width=10.5, height=4.5} 
[INFO ] 2019-12-16 12:05:06.228 JacksonExample:37 - Plane{planeN=4, model='EurofighterTyphoon', origin='UK', price=190000000, type='Multirole', cruew=1, combatkit=8, maxspeed=2300, stealthtechnology=false, length=15.9, width=10.7, height=5.38} 
[INFO ] 2019-12-16 12:05:06.229 JacksonExample:37 - Plane{planeN=2, model='Mirage2000', origin='France', price=115000000, type='Interceptor', cruew=1, combatkit=6, maxspeed=2400, stealthtechnology=false, length=14.3, width=9.2, height=5.15} 
[INFO ] 2019-12-16 12:05:06.229 JacksonExample:37 - Plane{planeN=3, model='Su25SM', origin='Russia', price=22556000, type='Assault', cruew=1, combatkit=9, maxspeed=900, stealthtechnology=false, length=15.8, width=14.2, height=4.8} 
[INFO ] 2019-12-16 12:05:06.229 View:62 - 
JSON: 
[INFO ] 2019-12-16 12:05:06.229 View:72 - Please, select menu point 
[INFO ] 2019-12-16 12:05:07.860 GsonExample:41 - Plane{planeN=1, model='F35A', origin='USA', price=221000000, type='Interceptor', cruew=2, combatkit=8, maxspeed=3000, stealthtechnology=true, length=15.5, width=10.5, height=4.5} 
[INFO ] 2019-12-16 12:05:07.860 GsonExample:41 - Plane{planeN=3, model='Su25SM', origin='Russia', price=22556000, type='Assault', cruew=1, combatkit=9, maxspeed=900, stealthtechnology=false, length=15.8, width=14.2, height=4.8} 
[INFO ] 2019-12-16 12:05:07.860 GsonExample:41 - Plane{planeN=4, model='EurofighterTyphoon', origin='UK', price=190000000, type='Multirole', cruew=1, combatkit=8, maxspeed=2300, stealthtechnology=false, length=15.9, width=10.7, height=5.38} 
[INFO ] 2019-12-16 12:05:07.861 GsonExample:41 - Plane{planeN=2, model='Mirage2000', origin='France', price=115000000, type='Interceptor', cruew=1, combatkit=6, maxspeed=2400, stealthtechnology=false, length=14.3, width=9.2, height=5.15} 
[INFO ] 2019-12-16 12:05:07.861 View:62 - 
JSON: 
[INFO ] 2019-12-16 12:05:07.861 View:72 - Please, select menu point 
[INFO ] 2019-12-16 12:05:08.846 JacksonExample:37 - Plane{planeN=1, model='F35A', origin='USA', price=221000000, type='Interceptor', cruew=2, combatkit=8, maxspeed=3000, stealthtechnology=true, length=15.5, width=10.5, height=4.5} 
[INFO ] 2019-12-16 12:05:08.846 JacksonExample:37 - Plane{planeN=4, model='EurofighterTyphoon', origin='UK', price=190000000, type='Multirole', cruew=1, combatkit=8, maxspeed=2300, stealthtechnology=false, length=15.9, width=10.7, height=5.38} 
[INFO ] 2019-12-16 12:05:08.847 JacksonExample:37 - Plane{planeN=2, model='Mirage2000', origin='France', price=115000000, type='Interceptor', cruew=1, combatkit=6, maxspeed=2400, stealthtechnology=false, length=14.3, width=9.2, height=5.15} 
[INFO ] 2019-12-16 12:05:08.848 JacksonExample:37 - Plane{planeN=3, model='Su25SM', origin='Russia', price=22556000, type='Assault', cruew=1, combatkit=9, maxspeed=900, stealthtechnology=false, length=15.8, width=14.2, height=4.8} 
[INFO ] 2019-12-16 12:05:08.848 View:62 - 
JSON: 
[INFO ] 2019-12-16 12:05:08.849 View:72 - Please, select menu point 
[INFO ] 2019-12-16 12:05:09.852 GsonExample:41 - Plane{planeN=1, model='F35A', origin='USA', price=221000000, type='Interceptor', cruew=2, combatkit=8, maxspeed=3000, stealthtechnology=true, length=15.5, width=10.5, height=4.5} 
[INFO ] 2019-12-16 12:05:09.852 GsonExample:41 - Plane{planeN=3, model='Su25SM', origin='Russia', price=22556000, type='Assault', cruew=1, combatkit=9, maxspeed=900, stealthtechnology=false, length=15.8, width=14.2, height=4.8} 
[INFO ] 2019-12-16 12:05:09.853 GsonExample:41 - Plane{planeN=4, model='EurofighterTyphoon', origin='UK', price=190000000, type='Multirole', cruew=1, combatkit=8, maxspeed=2300, stealthtechnology=false, length=15.9, width=10.7, height=5.38} 
[INFO ] 2019-12-16 12:05:09.853 GsonExample:41 - Plane{planeN=2, model='Mirage2000', origin='France', price=115000000, type='Interceptor', cruew=1, combatkit=6, maxspeed=2400, stealthtechnology=false, length=14.3, width=9.2, height=5.15} 
[INFO ] 2019-12-16 12:05:09.854 View:62 - 
JSON: 
[INFO ] 2019-12-16 12:05:09.854 View:72 - Please, select menu point 
[INFO ] 2019-12-16 12:05:11.174 JacksonExample:37 - Plane{planeN=1, model='F35A', origin='USA', price=221000000, type='Interceptor', cruew=2, combatkit=8, maxspeed=3000, stealthtechnology=true, length=15.5, width=10.5, height=4.5} 
[INFO ] 2019-12-16 12:05:11.174 JacksonExample:37 - Plane{planeN=4, model='EurofighterTyphoon', origin='UK', price=190000000, type='Multirole', cruew=1, combatkit=8, maxspeed=2300, stealthtechnology=false, length=15.9, width=10.7, height=5.38} 
[INFO ] 2019-12-16 12:05:11.175 JacksonExample:37 - Plane{planeN=2, model='Mirage2000', origin='France', price=115000000, type='Interceptor', cruew=1, combatkit=6, maxspeed=2400, stealthtechnology=false, length=14.3, width=9.2, height=5.15} 
[INFO ] 2019-12-16 12:05:11.175 JacksonExample:37 - Plane{planeN=3, model='Su25SM', origin='Russia', price=22556000, type='Assault', cruew=1, combatkit=9, maxspeed=900, stealthtechnology=false, length=15.8, width=14.2, height=4.8} 
[INFO ] 2019-12-16 12:05:11.175 View:62 - 
JSON: 
[INFO ] 2019-12-16 12:05:11.176 View:72 - Please, select menu point 
